<?xml version="1.0" encoding="UTF-8" standalone="no"?>
<svg
   xmlns:dc="http://purl.org/dc/elements/1.1/"
   xmlns:cc="http://creativecommons.org/ns#"
   xmlns:rdf="http://www.w3.org/1999/02/22-rdf-syntax-ns#"
   xmlns:svg="http://www.w3.org/2000/svg"
   xmlns="http://www.w3.org/2000/svg"
   xmlns:sodipodi="http://sodipodi.sourceforge.net/DTD/sodipodi-0.dtd"
   xmlns:inkscape="http://www.inkscape.org/namespaces/inkscape"
   version="1.1"
   id="svg1"
   width="16"
   height="16"
   viewBox="0 0 16 16"
   sodipodi:docname="edit-select-same-objects-symbolic.svg"
   inkscape:version="1.1-dev (3d47766, 2020-01-22)">
  <metadata
     id="metadata8336">
    <rdf:RDF>
      <cc:Work
         rdf:about="">
        <dc:format>image/svg+xml</dc:format>
        <dc:type
           rdf:resource="http://purl.org/dc/dcmitype/StillImage" />
        <dc:title></dc:title>
      </cc:Work>
    </rdf:RDF>
  </metadata>
  <defs
     id="defs8334" />

  <sodipodi:namedview
     inkscape:snap-bbox-edge-midpoints="false"
     inkscape:bbox-nodes="true"
     inkscape:snap-bbox-midpoints="true"
     inkscape:snap-nodes="false"
     inkscape:bbox-paths="true"
     inkscape:snap-bbox="true"
     objecttolerance="10"
     gridtolerance="10"
     guidetolerance="10"
     id="namedview"
     showgrid="true"
     inkscape:zoom="20.5625"
     inkscape:cx="-2.3671788"
     inkscape:cy="11.913951"
     inkscape:window-width="1296"
     inkscape:window-height="890"
     inkscape:window-x="65"
     inkscape:window-y="-6"
     inkscape:window-maximized="1"
     inkscape:current-layer="edit-select-all"
     inkscape:document-rotation="0">
    <inkscape:grid
       type="xygrid"
       id="grid" />
  </sodipodi:namedview>
  <g
     transform="translate(-45,-707.36218)"
     inkscape:label="00018"
     id="edit-select-all">
    <path
       inkscape:connector-curvature="0"
       id="rect55443"
       d="m 45,707.36218 h 16 v 16 H 45 Z"
       style="opacity:0"
        />
    <path
       inkscape:connector-curvature="0"
       id="rect55447"
       d="m 45,707.36218 h 1 v 1 h -1 z"
       style="opacity:1"
        />
    <path
       inkscape:connector-curvature="0"
       id="rect55449"
       d="m 47,707.36218 h 1 v 1 h -1 z"
       style="opacity:1"
        />
    <path
       inkscape:connector-curvature="0"
       id="rect55451"
       d="m 49,707.36218 h 1 v 1 h -1 z"
       style="opacity:1"
        />
    <path
       inkscape:connector-curvature="0"
       id="rect55453"
       d="m 51,707.36218 h 1 v 1 h -1 z"
       style="opacity:1"
        />
    <path
       inkscape:connector-curvature="0"
       id="rect55455"
       d="m 53,707.36218 h 1 v 1 h -1 z"
       style="opacity:1"
        />
    <path
       inkscape:connector-curvature="0"
       id="rect55457"
       d="m 55,707.36218 h 1 v 1 h -1 z"
       style="opacity:1"
        />
    <path
       inkscape:connector-curvature="0"
       id="rect55459"
       d="m 57,707.36218 h 1 v 1 h -1 z"
       style="opacity:1"
        />
    <path
       inkscape:connector-curvature="0"
       id="rect55461"
       d="m 59,707.36218 h 1 v 1 h -1 z"
       style="opacity:1"
        />
    <path
       inkscape:connector-curvature="0"
       id="rect55463"
       d="m 45,709.36218 h 1 v 1 h -1 z"
       style="opacity:1"
        />
    <path
       inkscape:connector-curvature="0"
       id="rect55465"
       d="m 45,711.36218 h 1 v 1 h -1 z"
       style="opacity:1"
        />
    <path
       inkscape:connector-curvature="0"
       id="rect55467"
       d="m 45,713.36218 h 1 v 1 h -1 z"
       style="opacity:1"
        />
    <path
       inkscape:connector-curvature="0"
       id="rect55469"
       d="m 45,715.36218 h 1 v 1 h -1 z"
       style="opacity:1"
        />
    <path
       inkscape:connector-curvature="0"
       id="rect55471"
       d="m 45,717.36218 h 1 v 1 h -1 z"
       style="opacity:1"
        />
    <path
       inkscape:connector-curvature="0"
       id="rect55473"
       d="m 45,719.36218 h 1 v 1 h -1 z"
       style="opacity:1"
        />
    <path
       inkscape:connector-curvature="0"
       id="rect55475"
       d="m 45,721.36218 h 1 v 1 h -1 z"
       style="opacity:1"
        />
    <path
       inkscape:connector-curvature="0"
       id="rect55481"
       d="m 59,709.36218 h 1 v 1 h -1 z"
       style="opacity:1"
        />
    <path
       inkscape:connector-curvature="0"
       id="rect55483"
       d="m 59,711.36218 h 1 v 1 h -1 z"
       style="opacity:1"
        />
    <path
       inkscape:connector-curvature="0"
       id="rect55485"
       d="m 59,713.36218 h 1 v 1 h -1 z"
       style="opacity:1"
        />
    <path
       inkscape:connector-curvature="0"
       id="rect55487"
       d="m 59,715.36218 h 1 v 1 h -1 z"
       style="opacity:1"
        />
    <path
       inkscape:connector-curvature="0"
       id="rect55489"
       d="m 59,717.36218 h 1 v 1 h -1 z"
       style="opacity:1"
        />
    <path
       inkscape:connector-curvature="0"
       id="rect55491"
       d="m 59,719.36218 h 1 v 1 h -1 z"
       style="opacity:1"
        />
    <path
       inkscape:connector-curvature="0"
       id="rect55493"
       d="m 59,721.36218 h 1 v 1 h -1 z"
       style="opacity:1"
        />
    <path
       inkscape:connector-curvature="0"
       id="rect55495"
       d="m 47,721.36218 h 1 v 1 h -1 z"
       style="opacity:1"
        />
    <path
       inkscape:connector-curvature="0"
       id="rect55497"
       d="m 49,721.36218 h 1 v 1 h -1 z"
       style="opacity:1"
        />
    <path
       inkscape:connector-curvature="0"
       id="rect55499"
       d="m 51,721.36218 h 1 v 1 h -1 z"
       style="opacity:1"
        />
    <path
       inkscape:connector-curvature="0"
       id="rect55501"
       d="m 53,721.36218 h 1 v 1 h -1 z"
       style="opacity:1"
        />
    <path
       inkscape:connector-curvature="0"
       id="rect55503"
       d="m 55,721.36218 h 1 v 1 h -1 z"
       style="opacity:1"
        />
    <path
       inkscape:connector-curvature="0"
       id="rect55505"
       d="m 57,721.36218 h 1 v 1 h -1 z"
       style="opacity:1"
        />
    <path
       transform="matrix(0.97536623,0,0,1.0205251,1.1577855,-14.785579)"
       inkscape:transform-center-y="-0.55075996"
       inkscape:transform-center-x="0.027132485"
       d="m 56.224598,720.2564 -3.63266,-1.84121 -3.337413,1.94704 0.628535,-4.02383 -2.883058,-2.5724 4.021116,-0.64566 1.555585,-3.53686 1.856651,3.62478 3.844463,0.3865 -2.873643,2.8859 z"
       inkscape:randomized="0"
       inkscape:rounded="0"
       inkscape:flatsided="false"
       sodipodi:arg2="1.5965572"
       sodipodi:arg1="0.92729522"
       sodipodi:r2="2.9035847"
       sodipodi:r1="5.9297814"
       sodipodi:cy="715.51257"
       sodipodi:cx="52.666729"
       sodipodi:sides="5"
       id="path2732"
       style="opacity:0.999;fill-opacity:1;stroke:none;stroke-width:0.833444;stroke-linejoin:round;paint-order:stroke fill markers"
       sodipodi:type="star" />
  </g>
</svg>
